<?xml version="1.0" encoding="UTF-8" standalone="no"?>
<!-- Created with Inkscape (http://www.inkscape.org/) -->

<svg
   xmlns:dc="http://purl.org/dc/elements/1.1/"
   xmlns:cc="http://creativecommons.org/ns#"
   xmlns:rdf="http://www.w3.org/1999/02/22-rdf-syntax-ns#"
   xmlns:svg="http://www.w3.org/2000/svg"
   xmlns="http://www.w3.org/2000/svg"
   xmlns:sodipodi="http://sodipodi.sourceforge.net/DTD/sodipodi-0.dtd"
   xmlns:inkscape="http://www.inkscape.org/namespaces/inkscape"
   width="210mm"
   height="297mm"
   viewBox="0 0 210 297"
   version="1.1"
   id="svg8"
   inkscape:version="0.92.2 5c3e80d, 2017-08-06"
   sodipodi:docname="desenhando.svg">
  <defs
     id="defs2" />
  <sodipodi:namedview
     id="base"
     pagecolor="#ffffff"
     bordercolor="#666666"
     borderopacity="1.0"
     inkscape:pageopacity="0.0"
     inkscape:pageshadow="2"
     inkscape:zoom="1.979899"
     inkscape:cx="468.86507"
     inkscape:cy="697.83134"
     inkscape:document-units="mm"
     inkscape:current-layer="layer1"
     showgrid="false"
     inkscape:window-width="1920"
     inkscape:window-height="996"
     inkscape:window-x="0"
     inkscape:window-y="28"
     inkscape:window-maximized="1" />
  <metadata
     id="metadata5">
    <rdf:RDF>
      <cc:Work
         rdf:about="">
        <dc:format>image/svg+xml</dc:format>
        <dc:type
           rdf:resource="http://purl.org/dc/dcmitype/StillImage" />
        <dc:title></dc:title>
      </cc:Work>
    </rdf:RDF>
  </metadata>
  <g
     inkscape:label="Camada 1"
     inkscape:groupmode="layer"
     id="layer1">
    <ellipse
       style="fill:#0044aa;fill-opacity:1;stroke-width:0.28132769"
       id="path3824-3"
       cx="105.00179"
       cy="143.39052"
       rx="102.06822"
       ry="97.328873" />
    <ellipse
       style="fill:#ff7f2a;fill-opacity:1;stroke-width:0.23863468"
       id="path3824"
       cx="104.64606"
       cy="144.75998"
       rx="86.578804"
       ry="82.558685" />
    <path
       style="fill:#ff7f2a;fill-opacity:1;stroke-width:0.37797621"
       d="m 99.013391,223.99352 c -0.123958,-0.12396 -1.903175,-0.38958 -3.953817,-0.59027 -3.783481,-0.37028 -4.482412,-0.4962 -10.532004,-1.89741 -8.175733,-1.89367 -19.855127,-6.92813 -26.577017,-11.45617 -1.728372,-1.16428 -3.222636,-2.11687 -3.320585,-2.11687 -0.590145,0 -8.116659,-6.59202 -11.301803,-9.89858 -3.410083,-3.54006 -7.252161,-8.07762 -7.75098,-9.15404 -0.105299,-0.22723 -1.187272,-1.91401 -2.404385,-3.7484 -3.144684,-4.73954 -6.727667,-12.43305 -8.392376,-18.02041 -0.878364,-2.9481 -1.742222,-6.18181 -2.069947,-7.74851 -0.173945,-0.83155 -0.521908,-2.36235 -0.773251,-3.40178 -0.290511,-1.20142 -0.466278,-5.33222 -0.482491,-11.33929 -0.0265,-9.81997 0.31704,-12.80741 2.238483,-19.46577 0.329952,-1.14338 0.761171,-2.75923 0.958265,-3.59078 0.197094,-0.83155 0.512696,-1.85208 0.701337,-2.26786 0.188641,-0.41577 1.156866,-2.78532 2.151611,-5.26565 1.778891,-4.43557 3.791063,-8.09034 7.262775,-13.19162 0.966565,-1.420257 2.041779,-3.017676 2.38937,-3.549827 0.814837,-1.247495 1.21235,-1.676622 6.586331,-7.110159 4.828746,-4.882263 7.314583,-7.113283 9.76082,-8.760261 0.847934,-0.570889 2.222058,-1.572622 3.053604,-2.226074 3.416853,-2.685048 13.183992,-7.618797 19.087798,-9.641965 1.351264,-0.463063 2.626934,-0.960988 2.834823,-1.106498 0.207885,-0.14551 1.993823,-0.639233 3.96875,-1.097158 1.974924,-0.457928 4.186086,-0.996458 4.91369,-1.196734 1.319208,-0.36312 4.623031,-0.870755 9.638393,-1.480945 3.452595,-0.420057 13.637155,-0.413316 17.008935,0.01127 4.19083,0.527711 9.61322,1.425299 12.28423,2.033455 2.28422,0.520091 4.31852,1.153207 10.58333,3.293769 3.36097,1.148376 14.05624,6.637737 17.23982,8.848359 5.3707,3.729321 8.81946,6.670588 13.35558,11.390284 2.56865,2.672611 5.30104,5.709737 6.07197,6.749171 0.77092,1.039437 2.08612,2.592459 2.92266,3.451173 0.83654,0.8587 1.73245,2.21942 1.99093,3.0238 0.25849,0.80439 0.68487,1.71766 0.94753,2.02949 0.76909,0.91308 3.37458,6.33482 4.8135,10.01637 3.45661,8.84395 4.80447,14.5713 5.5595,23.62352 0.34914,4.18601 0.32016,6.22304 -0.16135,11.33928 -0.79932,8.4932 -1.87392,13.00068 -5.24123,21.98479 -1.22705,3.27382 -6.30638,13.2673 -6.94201,13.65825 -0.27029,0.16625 -0.77279,0.84661 -1.11667,1.51191 -0.81375,1.57436 -3.70329,5.13659 -7.58687,9.3531 -10.65921,11.57299 -25.69878,20.48084 -40.80858,24.17069 -6.90726,1.68677 -7.96965,1.89151 -12.02246,2.31692 -4.72514,0.49597 -16.545468,0.85818 -16.886209,0.51744 z m -45.45036,-29.12525 0.252748,-1.34728 1.05073,1.25278 1.050729,1.25278 0.975008,-0.91023 c 0.536255,-0.50063 1.079894,-1.24069 1.208085,-1.64459 0.208761,-0.65774 0.307438,-0.61207 0.94588,0.43777 0.829233,1.36355 1.47987,1.52077 1.47987,0.35757 0,-0.76555 0.04162,-0.77687 0.692131,-0.18816 0.920203,0.83277 1.194846,0.46766 1.212274,-1.61164 l 0.0145,-1.73239 1.591879,1.77356 c 1.560409,1.73849 1.627367,1.76928 3.387262,1.55724 1.587216,-0.19123 1.795388,-0.32228 1.795388,-1.13025 v -0.91395 l 1.606399,1.10031 c 0.883518,0.60517 2.01254,1.22755 2.508938,1.38308 0.83797,0.26254 0.885111,0.2054 0.658902,-0.79867 -0.134,-0.59479 -0.342347,-1.67675 -0.462994,-2.40435 -0.211974,-1.27839 -0.179522,-1.2556 0.964073,0.67709 1.267063,2.14136 3.022089,3.48053 4.552064,3.47345 1.565296,-0.007 2.078868,-0.58684 2.078868,-2.34611 0,-1.51808 0.05939,-1.60855 0.985311,-1.50099 0.80541,0.0935 1.080497,-0.11348 1.50664,-1.13393 l 0.52133,-1.24838 0.284004,2.24421 c 0.156205,1.23432 0.444791,2.40501 0.641318,2.60153 0.779031,0.77904 1.452475,-0.0994 1.735971,-2.26439 l 0.288526,-2.20338 0.462084,1.99094 c 0.437525,1.88512 1.424829,3.48972 2.147218,3.48972 0.180811,0 0.521398,-0.46775 0.756859,-1.03943 0.338122,-0.82095 0.461158,-0.9004 0.585322,-0.37798 0.166499,0.70051 1.04513,0.89764 1.405077,0.31524 0.117687,-0.19043 0.723855,0.16366 1.347039,0.78684 1.667182,1.66718 2.05685,1.28657 2.185802,-2.13501 l 0.111432,-2.95664 1.649228,2.81737 c 0.907073,1.54956 1.912535,3.03591 2.234361,3.303 0.701893,0.58252 1.374213,0.25341 1.374213,-0.6727 0,-1.16984 0.41241,-1.14801 1.50956,0.0799 1.03208,1.15509 1.09052,1.17188 1.81064,0.52019 0.65289,-0.59086 0.77158,-0.60191 0.96796,-0.0901 0.3022,0.78751 1.11267,0.73415 2.19006,-0.1442 0.88417,-0.72084 0.90035,-0.71997 1.77322,0.0945 0.86716,0.80914 0.88929,0.81051 1.41741,0.0883 0.29508,-0.40354 0.53651,-0.95633 0.53651,-1.22843 0,-0.27209 0.17009,-0.49472 0.37797,-0.49472 0.20789,0 0.37798,0.13342 0.37798,0.29648 0,0.5119 2.15121,1.5934 3.16942,1.5934 0.73604,0 1.03475,-0.24239 1.223,-0.99242 0.20763,-0.82727 0.30587,-0.89094 0.59035,-0.38262 0.1877,0.3354 0.6749,0.78837 1.08268,1.00661 0.62036,0.33201 0.81226,0.24127 1.1754,-0.55572 0.40044,-0.87888 0.47158,-0.90189 0.92027,-0.29766 0.40591,0.54659 0.61259,0.57776 1.25032,0.18851 0.42022,-0.25649 1.00794,-0.37275 1.30606,-0.25835 0.3517,0.13496 0.67828,-0.16581 0.93004,-0.85657 l 0.38802,-1.06457 0.0298,1.00851 c 0.038,1.28604 0.38948,2.20428 0.84362,2.20428 0.19521,0 0.77066,-0.89297 1.27879,-1.98437 l 0.92386,-1.98438 0.004,1.98438 c 0.003,1.38904 0.15327,1.98437 0.50225,1.98437 0.72096,0 6.75338,-6.28262 8.14612,-8.48397 1.9248,-3.04234 1.33793,-4.26924 -1.07212,-2.24132 -0.64839,0.54559 -1.24767,0.9232 -1.33172,0.83914 -0.0841,-0.0841 0.59237,-1.42342 1.50319,-2.97635 0.91081,-1.55293 1.77677,-3.31578 1.92435,-3.91746 0.24703,-1.00717 0.19652,-1.07848 -0.63679,-0.89905 -0.4978,0.10719 -1.21995,0.3266 -1.60476,0.48759 -0.66579,0.27852 -0.67036,0.23604 -0.0945,-0.87757 0.775,-1.49868 0.78113,-2.7197 0.0136,-2.7197 -0.32533,0 -1.54045,0.97801 -2.70026,2.17337 -1.1598,1.19535 -1.99362,1.84724 -1.85291,1.44866 0.14069,-0.39859 0.36192,-1.73983 0.4916,-2.98055 0.31033,-2.96909 -0.22239,-2.79228 -2.7149,0.90108 -1.04083,1.54229 -2.06251,2.75959 -2.2704,2.70509 -0.23186,-0.0608 -0.36827,-2.25249 -0.35288,-5.66964 0.0204,-4.54241 0.179,-6.11773 0.85895,-8.5351 1.1732,-4.17098 1.59422,-4.84341 5.72432,-9.1426 4.3365,-4.51404 7.02476,-8.36478 9.47589,-13.57352 2.26096,-4.80463 3.15908,-7.84595 4.32179,-14.63483 0.51052,-2.9808 0.93302,-5.44152 0.93891,-5.46827 0.006,-0.0268 0.52736,-0.26265 1.15883,-0.52421 0.90441,-0.37462 1.84717,-0.38266 4.44122,-0.0379 6.18379,0.82191 10.19205,-0.50619 12.55325,-4.15943 2.98184,-4.61349 4.35735,-9.72214 3.39931,-12.62504 -0.54598,-1.65412 -2.8676,-4.3144 -5.11408,-5.860016 -4.18572,-2.879855 -12.61076,-6.307664 -19.45171,-7.914122 -1.97492,-0.463772 -4.57318,-1.189228 -5.7739,-1.61213 -2.08846,-0.735563 -2.21508,-0.740002 -2.91967,-0.102356 -0.40509,0.366604 -0.83726,0.983903 -0.96036,1.371777 -0.38376,1.209101 -1.9168,1.289317 -3.5121,0.183766 -3.40276,-2.358107 -5.72134,-0.32068 -7.04187,6.187953 -0.37395,1.843098 -0.62955,2.23324 -2.29618,3.504788 -2.80395,2.13927 -6.26876,3.08356 -10.34518,2.81946 -3.88018,-0.25138 -6.78966,-0.96451 -17.185708,-4.212299 -9.83507,-3.072537 -13.899038,-3.785745 -20.030379,-3.51524 -12.203707,0.538403 -23.008999,6.554479 -29.677047,16.523309 -4.206497,6.28879 -5.890773,12.19924 -5.602052,19.6587 0.203031,5.2456 0.951042,8.23072 3.125536,12.47321 1.689288,3.29584 2.24096,4.06635 5.419987,7.57 2.62155,2.88924 2.756633,3.13256 3.612758,6.5075 0.489159,1.92833 1.074936,5.67737 1.301729,8.33122 0.327883,3.83678 0.654606,5.45337 1.595004,7.8919 1.059606,2.74765 1.11869,3.10251 0.567886,3.41076 -0.338122,0.18922 -0.614768,0.67577 -0.614768,1.08121 0,0.40545 -0.05783,0.73717 -0.128513,0.73717 -0.07068,0 -1.149046,-1.02053 -2.396368,-2.26786 -1.458529,-1.45852 -2.578431,-2.26785 -3.138131,-2.26785 -0.834543,0 -0.86088,0.0899 -0.641466,2.18912 0.125844,1.20401 0.568425,3.28031 0.983512,4.61398 0.415086,1.33368 0.693094,2.48648 0.617797,2.56178 -0.0753,0.0753 -0.498841,-0.0875 -0.9412,-0.36176 -0.676212,-0.41925 -0.8587,-0.41121 -1.145948,0.0505 -0.797694,1.28219 0.852022,5.75394 3.388054,9.18373 2.207328,2.98524 3.22323,3.32307 3.620759,1.20407 z"
       id="path3812"
       inkscape:connector-curvature="0" />
    <path
       style="fill:#000000;fill-opacity:1;stroke-width:0.37797621"
       d="m 102.43365,193.1141 c -1.69536,-2.5985 -2.14841,-2.68131 -2.29286,-0.41911 l -0.1162,1.81965 -1.194521,-2.07886 c -0.656992,-1.14338 -1.389298,-2.81241 -1.627346,-3.70895 -0.320337,-1.20646 -0.599276,-1.59849 -1.07333,-1.50851 -0.484413,0.0919 -0.663102,0.58134 -0.733192,2.00806 -0.144981,2.95107 -0.492147,5.09928 -0.824069,5.09928 -0.166907,0 -0.606322,-0.79302 -0.976479,-1.76226 -0.584713,-1.53105 -0.733145,-1.68001 -1.131369,-1.13541 -0.377632,0.51644 -0.495364,0.087 -0.668449,-2.43827 -0.211079,-3.07956 -0.764413,-4.49374 -1.256524,-3.21133 -0.137306,0.35782 -0.445421,2.29976 -0.684697,4.31544 -0.378037,3.18456 -0.494916,3.55784 -0.891868,2.84825 -0.251248,-0.44915 -0.569558,-2.28335 -0.707353,-4.07601 -0.137795,-1.79266 -0.395407,-3.34893 -0.572479,-3.45836 -0.43084,-0.26627 -0.955387,1.19459 -1.539542,4.28761 l -0.481875,2.55147 -0.188986,-2.61621 c -0.111829,-1.54806 -0.374092,-2.67714 -0.642356,-2.76546 -0.249354,-0.0821 -0.898612,0.72939 -1.442796,1.80329 -0.922306,1.82009 -1.026163,1.90512 -1.531007,1.25356 -0.525523,-0.67827 -0.558389,-0.67724 -1.108543,0.0347 -0.323654,0.41883 -0.566965,1.51373 -0.566965,2.55134 0,1.80115 -0.01114,1.81752 -1.228423,1.80561 -0.675632,-0.007 -1.526424,-0.23822 -1.890644,-0.51469 -0.765828,-0.58131 -3.30653,-5.30156 -3.30653,-6.14304 0,-0.33863 -0.266562,-0.51388 -0.661458,-0.43488 -0.559493,0.11193 -0.657736,0.55319 -0.637323,2.86253 0.01328,1.50162 -0.124473,2.73021 -0.306107,2.73021 -0.181634,0 -1.229466,-0.85044 -2.328513,-1.88988 -2.754194,-2.6048 -3.463081,-2.52869 -2.303203,0.24729 0.31183,0.74632 0.566962,1.42891 0.566962,1.51689 0,0.088 -0.637834,0.0473 -1.41741,-0.0903 -1.031936,-0.18218 -1.810882,-0.7008 -2.864231,-1.90701 -1.618501,-1.85337 -1.985624,-1.99512 -2.332942,-0.90082 -0.131961,0.41578 -0.487855,0.75595 -0.790872,0.75595 -0.31673,0 -0.653155,0.51107 -0.791381,1.2022 -0.221526,1.10762 -0.264422,1.13735 -0.545336,0.37797 -0.447635,-1.21007 -1.173951,-1.00661 -2.030148,0.56871 -1.070591,1.96978 -1.585976,1.96165 -2.443353,-0.0385 -0.408418,-0.9528 -0.90175,-1.73237 -1.09629,-1.73237 -0.19454,0 -0.55962,0.85834 -0.811289,1.90741 -0.26039,1.08543 -0.640189,1.84654 -0.881322,1.76617 -1.278377,-0.42613 -5.322779,-8.17459 -4.62897,-8.86841 0.08392,-0.0839 0.69446,0.12764 1.356759,0.47013 0.6623,0.34249 1.304912,0.52197 1.428031,0.39885 0.123118,-0.12312 -0.244383,-1.61099 -0.816669,-3.30638 -0.572285,-1.69539 -1.142267,-3.94592 -1.266626,-5.00119 l -0.226105,-1.91866 1.282808,0.98696 c 0.705546,0.54283 1.856388,1.8185 2.557428,2.83482 0.701038,1.01632 1.541024,1.84859 1.866636,1.84949 0.38835,0.001 0.732914,0.58622 1.001562,1.70089 0.451805,1.87463 0.9243,2.08069 1.632394,0.71192 0.836774,-1.61752 0.526912,-3.67019 -1.233792,-8.17318 -1.527744,-3.9072 -1.770364,-4.96034 -2.256128,-9.79315 -0.893046,-8.88477 -1.754402,-11.46303 -4.994339,-14.94936 -6.023549,-6.48162 -8.424605,-12.50213 -8.424605,-21.12424 0,-5.4986 0.698433,-8.58657 3.043449,-13.45594 4.962294,-10.3041 14.7218,-17.621191 26.438695,-19.822152 1.351264,-0.25383 4.497917,-0.454895 6.992559,-0.446815 5.417955,0.01754 8.383969,0.636448 18.689021,3.899707 11.529271,3.65091 16.275071,4.542 20.263381,3.80472 4.64784,-0.8592 9.61755,-4.19116 9.61755,-6.448121 0,-2.665056 2.23965,-7.187155 3.55957,-7.187155 0.25771,0 1.24912,0.517022 2.20314,1.148937 1.34737,0.892463 1.97356,1.091766 2.80513,0.892823 1.43385,-0.343032 2.01549,-0.847987 2.01549,-1.749766 0,-0.88596 0.70513,-0.834303 6.42559,0.470731 12.12034,2.765062 23.47246,8.40786 25.49671,12.673641 1.08154,2.27918 0.69354,5.74743 -1.0547,9.42783 -3.2534,6.84907 -5.03462,7.64779 -15.68577,7.0337 -1.94185,-0.11195 -2.58441,0.004 -3.40179,0.61306 -0.91344,0.68082 -1.1009,1.28318 -2.00367,6.43836 -2.13231,12.17631 -5.61406,19.28102 -13.41468,27.37344 -4.23937,4.39797 -4.88738,5.49829 -6.28673,10.67498 -0.66801,2.47122 -0.82771,4.10758 -0.83646,8.57101 -0.0151,7.67662 0.59612,8.24959 3.97255,3.72415 1.6678,-2.23536 1.72556,-2.1872 0.93032,0.77555 -0.3069,1.14338 -0.56001,2.29148 -0.56248,2.55134 -0.0102,1.08052 1.11403,0.32243 2.98568,-2.01319 2.10506,-2.6269 2.93969,-3.00514 1.59241,-0.72167 -0.44155,0.74836 -0.80281,1.52103 -0.80281,1.71703 0,0.55923 1.25647,0.41747 2.20819,-0.24914 1.46767,-1.028 1.35442,-0.30295 -0.43136,2.76181 -0.94424,1.62051 -1.77283,3.2804 -1.84132,3.68863 -0.16733,0.99758 1.04009,1.21909 1.98481,0.36413 0.40158,-0.36342 0.83786,-0.55305 0.96952,-0.42139 0.31596,0.31596 -1.37223,2.49982 -4.28537,5.54359 l -2.3591,2.46487 -0.0125,-2.77182 c -0.0149,-3.27855 -0.43843,-3.40728 -1.98812,-0.60422 l -1.0306,1.86414 -0.009,-2.52903 c -0.005,-1.39097 -0.18248,-2.63636 -0.39473,-2.76753 -0.46737,-0.28885 -1.39118,1.81222 -1.73089,3.93666 -0.18298,1.14424 -0.42448,1.54889 -0.92441,1.54889 -0.3722,0 -0.91548,0.0916 -1.20729,0.20359 -0.3243,0.12445 -0.70576,-0.18096 -0.98127,-0.78564 -0.58989,-1.29466 -1.33163,-1.0098 -1.59383,0.61209 l -0.209,1.29287 -0.63353,-1.44461 c -0.72204,-1.64648 -1.16313,-1.56841 -1.78502,0.31595 -0.5643,1.70986 -1.45338,1.70846 -3.35028,-0.005 -0.80536,-0.72761 -1.56355,-1.32292 -1.68485,-1.32292 -0.1213,0 -0.33412,0.6054 -0.47293,1.34534 l -0.25239,1.34533 -0.82854,-0.77837 c -1.06634,-1.00178 -1.28871,-0.9803 -1.72475,0.16657 -0.50591,1.33064 -1.13296,1.17459 -1.13909,-0.28348 -0.007,-1.54453 -0.36789,-2.92932 -0.7645,-2.92932 -0.16693,0 -0.58532,0.84845 -0.92975,1.88544 -0.34444,1.03699 -0.76232,1.96953 -0.92863,2.07231 -0.1663,0.10279 -0.87618,-0.69259 -1.57749,-1.76752 z m 10.81136,-5.30853 c 0.0861,-0.25986 0.51317,-1.70562 0.94909,-3.2128 0.43592,-1.50718 0.92476,-2.74033 1.08633,-2.74033 0.16157,0 0.53707,0.5427 0.83444,1.20599 1.40289,3.12913 2.41653,0.52084 2.14044,-5.50777 -0.17237,-3.76384 -0.33987,-4.55482 -1.60417,-7.57504 -1.23122,-2.94124 -1.38687,-3.64613 -1.21751,-5.51386 0.26944,-2.97149 1.08431,-4.35151 3.21499,-5.44476 0.98268,-0.50422 2.12688,-1.18005 2.54265,-1.50185 0.73557,-0.56931 0.7276,-0.58542 -0.29562,-0.59712 -1.24563,-0.0143 -3.53882,0.88888 -4.56494,1.79779 -1.25007,1.10728 -5.83738,10.94565 -6.54578,14.03869 -0.73493,3.20885 -0.96238,12.41865 -0.31092,12.58955 0.20788,0.0545 0.82139,-1.21995 1.36335,-2.83218 l 0.98538,-2.93134 0.24304,2.32533 c 0.13368,1.27893 0.24305,3.23586 0.24305,4.34875 0,1.84245 0.54212,2.74057 0.93618,1.55095 z m -37.429489,-3.02381 c 0.08067,-0.25986 0.597514,-1.93535 1.148545,-3.7233 0.961353,-3.11934 2.308956,-5.90947 2.676626,-5.5418 0.09629,0.0963 -0.185703,1.74197 -0.626644,3.65708 -0.440942,1.91511 -0.706314,3.57742 -0.589712,3.69402 0.469612,0.46961 1.417365,-0.33678 3.148841,-2.67919 1.001255,-1.35455 1.948032,-2.46979 2.103945,-2.47834 0.155917,-0.009 0.296553,0.62231 0.312531,1.40189 0.04152,2.02617 0.845193,4.44122 1.477931,4.44122 0.357241,0 0.69977,-0.80016 1.020154,-2.3831 0.674148,-3.33082 1.035812,-3.88536 1.557655,-2.38839 0.226383,0.64939 0.580761,1.18071 0.787506,1.18071 0.206751,0 0.42821,0.70966 0.492133,1.57702 0.136514,1.85225 0.840703,2.29718 1.326962,0.83841 0.337944,-1.01384 0.348237,-1.00622 1.021136,0.75575 0.744788,1.95019 1.435356,2.10341 1.750581,0.38841 l 0.202692,-1.10274 0.450987,1.26251 c 0.590344,1.65262 1.298671,1.37608 1.853539,-0.72364 0.417446,-1.57968 0.443748,-1.60442 0.472472,-0.44438 0.03986,1.6097 1.092877,1.68028 1.410033,0.0945 0.278024,-1.39012 0.724501,-1.45981 1.049761,-0.16387 0.163187,0.65019 0.457123,0.92835 0.891421,0.84358 0.581724,-0.11354 0.647954,-0.78625 0.647954,-6.58121 v -6.45475 l -1.500362,-2.95469 c -1.4638,-2.8827 -1.497844,-3.03922 -1.397037,-6.4228 l 0.103322,-3.46809 -5.217544,-0.40359 c -2.869649,-0.22197 -7.83228,-0.87759 -11.028068,-1.45693 -5.662094,-1.02643 -5.823818,-1.03515 -6.331101,-0.34141 -0.286319,0.39157 -0.52224,1.06213 -0.524272,1.49015 -0.0075,1.57751 -1.872607,4.6562 -5.051126,8.33772 -4.026262,4.66342 -5.151056,6.76445 -5.149098,9.61811 0.0016,2.21571 0.899101,8.4083 1.316669,9.08394 0.467913,0.75709 0.949852,-0.043 0.976382,-1.62093 l 0.02663,-1.58409 0.539509,1.47218 c 1.128681,3.07989 2.034739,3.12847 2.087147,0.11191 0.03238,-1.86395 0.05183,-1.90064 0.388784,-0.73365 0.389652,1.3495 0.927016,1.59555 1.238221,0.56697 0.196464,-0.64935 0.976281,-5.30229 0.981885,-5.85863 0.0016,-0.15592 0.172945,-0.28348 0.380833,-0.28348 0.207886,0 0.377976,0.72966 0.377976,1.62148 0,3.96042 2.477273,9.66496 3.194201,7.35545 z m 63.113629,-83.27625 c 1.19872,-1.19873 0.25687,-3.563781 -1.41923,-3.563781 -1.01154,0 -2.14454,1.063604 -2.14454,2.013196 0,1.793065 2.31434,2.800015 3.56377,1.550585 z"
       id="path3814"
       inkscape:connector-curvature="0" />
    <path
       style="fill:#ffffff;stroke-width:0.40481514"
       d="m 135.83725,101.13664 c -1.34251,-2.048918 0.8014,-4.23827 2.84137,-2.90162 1.21955,0.799065 1.35043,2.26268 0.28833,3.22387 -1.06231,0.96137 -2.37736,0.82597 -3.1297,-0.32225 z"
       id="path3802"
       inkscape:connector-curvature="0" />
  </g>
</svg>
